MP enrichment analysis
…
Warning in left_join(dplyr::filter(magma_sig, set_name %in% celltypes_of_interest & : Detected an unexpected many-to-many relationship between `x` and `y`.
ℹ Row 21 of `x` matches multiple rows in `y`.
ℹ Row 6 of `y` matches multiple rows in `x`.
ℹ If a many-to-many relationship is expected, set `relationship =
  "many-to-many"` to silence this warning.

In [17]:

genes_per_phenotype <- celltype_genes |>
  dplyr::select(set_name, MP_name, hgnc_symbol) |>
  dplyr::distinct() |>
  dplyr::arrange(hgnc_symbol, set_name)
genes_per_phenotype

# A tibble: 46 × 3
   set_name              MP_name                  hgnc_symbol
   <chr>                 <chr>                    <chr>      
 1 Pericyte-2            amyloidosis              ABCA1      
 2 Perivascular-FB-KAZN2 amyloidosis              ABCA1      
 3 Microglia-activated   hematoma                 APOE       
 4 Microglia-activated   abnormal cell chemotaxis APOE       
 5 Microglia-activated   amyloid beta deposits    APOE       
 6 Microglia-activated   amyloidosis              APOE       
 7 Microglia-activated   hematoma                 APP        
 8 Microglia-activated   amyloid beta deposits    APP        
 9 Microglia-activated   amyloidosis              APP        
10 Microglia-activated   tau protein deposits     APP        
# ℹ 36 more rows
…
